^C:\USERS\FLAVIA\DESKTOP\EGC\LAB2_VECTORI\DEBUG\MAINMATRICI.OBJ|C:\USERS\FLAVIA\DESKTOP\EGC\LAB2_VECTORI\DEBUG\MAT3.OBJ|C:\USERS\FLAVIA\DESKTOP\EGC\LAB2_VECTORI\DEBUG\TESTMATRIX.OBJ|C:\USERS\FLAVIA\DESKTOP\EGC\LAB2_VECTORI\DEBUG\VEC2.OBJ|C:\USERS\FLAVIA\DESKTOP\EGC\LAB2_VECTORI\DEBUG\VEC3.OBJ|C:\USERS\FLAVIA\DESKTOP\EGC\LAB2_VECTORI\DEBUG\VEC4.OBJ
C:\PROGRAM FILES (X86)\WINDOWS KITS\10\LIB\10.0.19041.0\UM\X86\KERNEL32.LIB
C:\PROGRAM FILES (X86)\WINDOWS KITS\10\LIB\10.0.19041.0\UM\X86\USER32.LIB
C:\PROGRAM FILES (X86)\WINDOWS KITS\10\LIB\10.0.19041.0\UM\X86\GDI32.LIB
C:\PROGRAM FILES (X86)\WINDOWS KITS\10\LIB\10.0.19041.0\UM\X86\WINSPOOL.LIB
C:\PROGRAM FILES (X86)\WINDOWS KITS\10\LIB\10.0.19041.0\UM\X86\COMDLG32.LIB
C:\PROGRAM FILES (X86)\WINDOWS KITS\10\LIB\10.0.19041.0\UM\X86\ADVAPI32.LIB
C:\PROGRAM FILES (X86)\WINDOWS KITS\10\LIB\10.0.19041.0\UM\X86\SHELL32.LIB
C:\PROGRAM FILES (X86)\WINDOWS KITS\10\LIB\10.0.19041.0\UM\X86\OLE32.LIB
C:\PROGRAM FILES (X86)\WINDOWS KITS\10\LIB\10.0.19041.0\UM\X86\OLEAUT32.LIB
C:\PROGRAM FILES (X86)\WINDOWS KITS\10\LIB\10.0.19041.0\UM\X86\UUID.LIB
C:\PROGRAM FILES (X86)\WINDOWS KITS\10\LIB\10.0.19041.0\UM\X86\ODBC32.LIB
C:\PROGRAM FILES (X86)\WINDOWS KITS\10\LIB\10.0.19041.0\UM\X86\ODBCCP32.LIB
C:\USERS\FLAVIA\DESKTOP\EGC\LAB2_VECTORI\DEBUG\MAINMATRICI.OBJ
C:\USERS\FLAVIA\DESKTOP\EGC\LAB2_VECTORI\DEBUG\MAT3.OBJ
C:\USERS\FLAVIA\DESKTOP\EGC\LAB2_VECTORI\DEBUG\TESTMATRIX.OBJ
C:\USERS\FLAVIA\DESKTOP\EGC\LAB2_VECTORI\DEBUG\VEC2.OBJ
C:\USERS\FLAVIA\DESKTOP\EGC\LAB2_VECTORI\DEBUG\VEC3.OBJ
C:\USERS\FLAVIA\DESKTOP\EGC\LAB2_VECTORI\DEBUG\VEC4.OBJ
C:\WINDOWS\SYSTEM32\TZRES.DLL
C:\WINDOWS\GLOBALIZATION\SORTING\SORTDEFAULT.NLS
C:\PROGRAM FILES\MICROSOFT VISUAL STUDIO\2022\COMMUNITY\VC\TOOLS\MSVC\14.31.31103\LIB\X86\MSVCPRTD.LIB
C:\PROGRAM FILES\MICROSOFT VISUAL STUDIO\2022\COMMUNITY\VC\TOOLS\MSVC\14.31.31103\LIB\X86\MSVCRTD.LIB
C:\PROGRAM FILES\MICROSOFT VISUAL STUDIO\2022\COMMUNITY\VC\TOOLS\MSVC\14.31.31103\LIB\X86\OLDNAMES.LIB
C:\PROGRAM FILES\MICROSOFT VISUAL STUDIO\2022\COMMUNITY\VC\TOOLS\MSVC\14.31.31103\LIB\X86\VCRUNTIMED.LIB
C:\PROGRAM FILES (X86)\WINDOWS KITS\10\LIB\10.0.19041.0\UCRT\X86\UCRTD.LIB
