^C:\USERS\FLAVIA\DOWNLOADS\EGC_LAB1\EGC_LAB1\EGC_LAB1\DEBUG\EGC_LAB1.OBJ|C:\USERS\FLAVIA\DOWNLOADS\EGC_LAB1\EGC_LAB1\EGC_LAB1\DEBUG\STDAFX.OBJ
C:\USERS\FLAVIA\DOWNLOADS\EGC_LAB1\EGC_LAB1\DEBUG\EGC_LAB1.EXE
C:\USERS\FLAVIA\DOWNLOADS\EGC_LAB1\EGC_LAB1\EGC_LAB1\DEBUG\EGC_LAB1.ILK
C:\USERS\FLAVIA\DOWNLOADS\EGC_LAB1\EGC_LAB1\DEBUG\EGC_LAB1.PDB
^C:\USERS\FLAVIA\DESKTOP\EGC\EGC_LAB1\EGC_LAB1\EGC_LAB1\DEBUG\EGC_LAB1.OBJ|C:\USERS\FLAVIA\DESKTOP\EGC\EGC_LAB1\EGC_LAB1\EGC_LAB1\DEBUG\STDAFX.OBJ
C:\USERS\FLAVIA\DESKTOP\EGC\EGC_LAB1\EGC_LAB1\DEBUG\EGC_LAB1.EXE
C:\USERS\FLAVIA\DESKTOP\EGC\EGC_LAB1\EGC_LAB1\EGC_LAB1\DEBUG\EGC_LAB1.ILK
C:\USERS\FLAVIA\DESKTOP\EGC\EGC_LAB1\EGC_LAB1\DEBUG\EGC_LAB1.PDB
