^C:\USERS\FLAVIA\DOWNLOADS\EGC_LAB1\EGC_LAB1\EGC_LAB1\DEBUG\EGC_LAB1.OBJ|C:\USERS\FLAVIA\DOWNLOADS\EGC_LAB1\EGC_LAB1\EGC_LAB1\DEBUG\STDAFX.OBJ
/OUT:"C:\USERS\FLAVIA\DOWNLOADS\EGC_LAB1\EGC_LAB1\DEBUG\EGC_LAB1.EXE" /INCREMENTAL /ILK:"DEBUG\EGC_LAB1.ILK" /NOLOGO SDL2.LIB SDL2MAIN.LIB KERNEL32.LIB USER32.LIB GDI32.LIB WINSPOOL.LIB COMDLG32.LIB ADVAPI32.LIB SHELL32.LIB OLE32.LIB OLEAUT32.LIB UUID.LIB ODBC32.LIB ODBCCP32.LIB /MANIFEST /MANIFESTUAC:"level='asInvoker' uiAccess='false'" /manifest:embed /DEBUG /PDB:"C:\USERS\FLAVIA\DOWNLOADS\EGC_LAB1\EGC_LAB1\DEBUG\EGC_LAB1.PDB" /SUBSYSTEM:CONSOLE /TLBID:1 /DYNAMICBASE /NXCOMPAT /IMPLIB:"C:\USERS\FLAVIA\DOWNLOADS\EGC_LAB1\EGC_LAB1\DEBUG\EGC_LAB1.LIB" /MACHINE:X86 DEBUG\EGC_LAB1.OBJ
DEBUG\STDAFX.OBJ
^C:\USERS\FLAVIA\DESKTOP\EGC\EGC_LAB1\EGC_LAB1\EGC_LAB1\DEBUG\EGC_LAB1.OBJ|C:\USERS\FLAVIA\DESKTOP\EGC\EGC_LAB1\EGC_LAB1\EGC_LAB1\DEBUG\STDAFX.OBJ
/OUT:"C:\USERS\FLAVIA\DESKTOP\EGC\EGC_LAB1\EGC_LAB1\DEBUG\EGC_LAB1.EXE" /INCREMENTAL /ILK:"DEBUG\EGC_LAB1.ILK" /NOLOGO SDL2.LIB SDL2MAIN.LIB KERNEL32.LIB USER32.LIB GDI32.LIB WINSPOOL.LIB COMDLG32.LIB ADVAPI32.LIB SHELL32.LIB OLE32.LIB OLEAUT32.LIB UUID.LIB ODBC32.LIB ODBCCP32.LIB /MANIFEST /MANIFESTUAC:"level='asInvoker' uiAccess='false'" /manifest:embed /DEBUG /PDB:"C:\USERS\FLAVIA\DESKTOP\EGC\EGC_LAB1\EGC_LAB1\DEBUG\EGC_LAB1.PDB" /SUBSYSTEM:CONSOLE /TLBID:1 /DYNAMICBASE /NXCOMPAT /IMPLIB:"C:\USERS\FLAVIA\DESKTOP\EGC\EGC_LAB1\EGC_LAB1\DEBUG\EGC_LAB1.LIB" /MACHINE:X86 DEBUG\EGC_LAB1.OBJ
DEBUG\STDAFX.OBJ
